{
    "$schema": "http://schemas.infopack.io/infopack-meta-input.1.schema.json",
    "title": "Skapa informationsstruktur med CoClass",
    "description": "Beskrivning hur en informationsstruktur byggs upp med CoClass"}