{
    "$schema": "http://schemas.infopack.io/infopack-meta-input.1.schema.json",
    "title": "Teknisk beskrivning med CoClass och AMA",
    "description": "En beskrivning av hur man upprättar tekniska beskrivningar med CoClass och AMA"}