{
    "$schema": "http://schemas.infopack.io/infopack-meta-input.1.schema.json",
    "title": "Standardiserad informationshantering i byggande och förvaltning",
    "description": "En beskrivning av vad standardiserad informationshantering innebär"}