{
    "$schema": "http://schemas.infopack.io/infopack-meta-input.1.schema.json",
    "title": "Exempel 3D CAD-modell",
    "description": "En bild som visar ett exempel på en 3D CAD-modell, ett bord med lådor"}