{
    "$schema": "http://schemas.infopack.io/infopack-meta-input.1.schema.json",
    "title": "Process leveransskedet steg 5-8",
    "description": "Figur som illustrerar steg 5-8 i leveransskedet enligt standarden"
}