{
    "$schema": "http://schemas.infopack.io/infopack-meta-input.1.schema.json",
    "title": "Organisation",
    "description": "En figur som visar roller och deras relationer till varandra enligt ISO 19650"}