{
    "$schema": "http://schemas.infopack.io/infopack-meta-input.1.schema.json",
    "title": "Uppdelning av modeller",
    "description": "En beskrivning av principer för hur informationen ska delas upp i olika filer"}