{
    "$schema": "http://schemas.infopack.io/infopack-meta-input.1.schema.json",
    "title": "Exempel IfcCLassification",
    "description": "En figur som visar ett exempel på en klassificering av ett tilluftsdon"}