{
    "$schema": "http://schemas.infopack.io/infopack-meta-input.1.schema.json",
    "title": "Geografiskt och projicerat koordinatsystem",
    "description": "En figur som förklarar geografiskt och projicerat koordinatsystem"}