{
    "$schema": "http://schemas.infopack.io/infopack-meta-input.1.schema.json",
    "title": "LOIN Nationella Riktlinjer",
    "description": "En figur som visar ramverk för nivå av informationsbehov enligt Nationella Riktlinjer"}