{
    "$schema": "http://schemas.infopack.io/infopack-meta-input.1.schema.json",
    "title": "Bild 4 Informationssruktur med CoClass",
    "description": "Figur som visar exempel på en informationsstruktur med CoClass"
}