{
    "$schema": "http://schemas.infopack.io/infopack-meta-input.1.schema.json",
    "title": "Bild 2 Teknisk beskrivning",
    "description": "Figur som visar exempel från teknisk beskrivning med CoClass"
}