{
    "$schema": "http://schemas.infopack.io/infopack-meta-input.1.schema.json",
    "title": "Ontologi IFC 2x3 OWL",
    "description": "Bild från den publika representationen av ontologi för IFC 2x3"}