{
    "$schema": "http://schemas.infopack.io/infopack-meta-input.1.schema.json",
    "title": "IFC Egenskaper",
    "description": "Figur som exempel på egenskaper i egenskapsgruppen Pset_BeamCommon."}